<?xml version="1.0" encoding="UTF-8"?>
<!DOCTYPE svg PUBLIC "-//W3C//DTD SVG 1.1//EN" "http://www.w3.org/Graphics/SVG/1.1/DTD/svg11.dtd">
<svg xmlns="http://www.w3.org/2000/svg" xml:space="preserve" width="18px" height="18px" style="shape-rendering:geometricPrecision; text-rendering:geometricPrecision; image-rendering:optimizeQuality; fill-rule:evenodd; clip-rule:evenodd"
viewBox="0 0 2.32333 2.32333"
 xmlns:xlink="http://www.w3.org/1999/xlink">
 <defs>
  <style type="text/css">
   <![CDATA[
    .fil0 {fill:#636B71}
   ]]>
  </style>
 </defs>
 <g id="Слой_x0020_1">
  <metadata id="CorelCorpID_0Corel-Layer"/>
  <path class="fil0" d="M1.16166 0c0.641507,0 1.16166,0.520157 1.16166,1.16166 0,0.641507 -0.520157,1.16166 -1.16166,1.16166 -0.641507,0 -1.16166,-0.520157 -1.16166,-1.16166 0,-0.641507 0.520157,-1.16166 1.16166,-1.16166zm-0.646538 1.61032l0.448811 -0.448811 -0.448963 -0.448811 0.197727 -0.197574 0.448811 0.448811 0.448811 -0.448811 0.197727 0.197574 -0.448963 0.448811 0.448811 0.448811 -0.197574 0.197727 -0.448811 -0.448811 -0.448811 0.448811 -0.197574 -0.197727z"/>
 </g>
</svg>
